<?xml version="1.0" encoding="UTF-8" standalone="no"?>
<svg
   xmlns:dc="http://purl.org/dc/elements/1.1/"
   xmlns:cc="http://creativecommons.org/ns#"
   xmlns:rdf="http://www.w3.org/1999/02/22-rdf-syntax-ns#"
   xmlns:svg="http://www.w3.org/2000/svg"
   xmlns="http://www.w3.org/2000/svg"
   width="1024"
   height="256"
   viewBox="0 0 270.93332 67.733335"
   version="1.1"
   id="svg8">
  <defs
     id="defs2" />
  <metadata
     id="metadata5">
    <rdf:RDF>
      <cc:Work
         rdf:about="">
        <dc:format>image/svg+xml</dc:format>
        <dc:type
           rdf:resource="http://purl.org/dc/dcmitype/StillImage" />
        <dc:title></dc:title>
      </cc:Work>
    </rdf:RDF>
  </metadata>
  <g
     id="layer1">
    <rect
       style="fill:#333333;stroke:#cccccc;stroke-width:1.32292;stroke-miterlimit:4;stroke-dasharray:none;stroke-opacity:1"
       id="rect919"
       width="112.16705"
       height="30.55414"
       x="156.17986"
       y="-2.4988797"
       transform="rotate(3.3490557)" />
    <rect
       style="fill:#333333;stroke:#cccccc;stroke-width:1.32292;stroke-miterlimit:4;stroke-dasharray:none;stroke-opacity:1"
       id="rect917"
       width="150.43452"
       height="32.505951"
       x="0.4050408"
       y="31.812984"
       transform="rotate(-6.9561421)" />
    <text
       xml:space="preserve"
       style="font-size:25.1624px;line-height:1.25;font-family:'Deep Script 2';-inkscape-font-specification:'Deep Script 2, ';fill:#b3b3b3;stroke-width:0.336996"
       x="2.5197396"
       y="53.813732"
       id="text835"
       transform="rotate(-6.5472791)"><tspan
         id="tspan833"
         x="2.5197396"
         y="53.813732"
         style="font-size:25.1624px;fill:#b3b3b3;stroke-width:0.336996">G</tspan></text>
    <text
       xml:space="preserve"
       style="font-size:25.1624px;line-height:1.25;font-family:'Deep Script 2';-inkscape-font-specification:'Deep Script 2, ';fill:#b3b3b3;stroke-width:0.336996"
       x="21.776659"
       y="56.220852"
       id="text839"
       transform="rotate(-6.5472791)"><tspan
         id="tspan837"
         x="21.776659"
         y="56.220852"
         style="font-size:25.1624px;fill:#b3b3b3;stroke-width:0.336996">e</tspan></text>
    <text
       xml:space="preserve"
       style="font-size:25.1624px;line-height:1.25;font-family:'Deep Script 2';-inkscape-font-specification:'Deep Script 2, ';fill:#b3b3b3;stroke-width:0.33707917;stroke-miterlimit:4;stroke-dasharray:none"
       x="34.775082"
       y="53.813732"
       id="text853"
       transform="rotate(-6.5472791)"><tspan
         id="tspan851"
         x="34.775082"
         y="53.813732"
         style="font-size:25.1624px;fill:#b3b3b3;stroke-width:0.33707917;stroke-miterlimit:4;stroke-dasharray:none">n</tspan></text>
    <text
       xml:space="preserve"
       style="font-size:25.1624px;line-height:1.25;font-family:'Deep Script 2';-inkscape-font-specification:'Deep Script 2, ';fill:#ff5555;stroke-width:0.336996"
       x="51.624886"
       y="55.739429"
       id="text857"
       transform="rotate(-6.5472791)"><tspan
         id="tspan855"
         x="51.624886"
         y="55.739429"
         style="font-size:25.1624px;fill:#ff5555;stroke-width:0.336996">N</tspan></text>
    <text
       xml:space="preserve"
       style="font-size:25.1624px;line-height:1.25;font-family:'Deep Script 2';-inkscape-font-specification:'Deep Script 2, ';fill:#ff5555;stroke-width:0.336996"
       x="70.400375"
       y="56.461559"
       id="text861"
       transform="rotate(-6.5472791)"><tspan
         id="tspan859"
         x="70.400375"
         y="56.461559"
         style="font-size:25.1624px;fill:#ff5555;stroke-width:0.336996">o</tspan></text>
    <text
       xml:space="preserve"
       style="font-size:25.1624px;line-height:1.25;font-family:'Deep Script 2';-inkscape-font-specification:'Deep Script 2, ';fill:#ffdd55;stroke-width:0.336996"
       x="86.287323"
       y="53.813732"
       id="text865"
       transform="rotate(-6.5472791)"><tspan
         id="tspan863"
         x="86.287323"
         y="53.813732"
         style="font-size:25.1624px;fill:#ffdd55;stroke-width:0.336996">k</tspan></text>
    <text
       xml:space="preserve"
       style="font-size:25.1624px;line-height:1.25;font-family:'Deep Script 2';-inkscape-font-specification:'Deep Script 2, ';fill:#ffdd55;stroke-width:0.336996"
       x="96.878624"
       y="57.183689"
       id="text869"
       transform="rotate(-6.5472791)"><tspan
         id="tspan867"
         x="96.878624"
         y="57.183689"
         style="font-size:25.1624px;fill:#ffdd55;stroke-width:0.336996">y</tspan></text>
    <text
       xml:space="preserve"
       style="font-size:25.1624px;line-height:1.25;font-family:'Deep Script 2';-inkscape-font-specification:'Deep Script 2, ';fill:#ffdd55;stroke-width:0.336996"
       x="110.83989"
       y="55.257999"
       id="text873"
       transform="rotate(-6.5472791)"><tspan
         id="tspan871"
         x="110.83989"
         y="55.257999"
         style="font-size:25.1624px;fill:#ffdd55;stroke-width:0.336996">o</tspan></text>
    <text
       xml:space="preserve"
       style="font-size:25.1624px;line-height:1.25;font-family:'Deep Script 2';-inkscape-font-specification:'Deep Script 2, ';fill:#ff5555;stroke-width:0.336996"
       x="125.28259"
       y="52.850883"
       id="text877"
       transform="rotate(-6.5472791)"><tspan
         id="tspan875"
         x="125.28259"
         y="52.850883"
         style="font-size:25.1624px;fill:#ff5555;stroke-width:0.336996">U</tspan></text>
    <text
       xml:space="preserve"
       style="font-size:25.1624px;line-height:1.25;font-family:'Deep Script 2';-inkscape-font-specification:'Deep Script 2, ';fill:#55ff99;stroke-width:0.336996"
       x="159.59843"
       y="23.480335"
       id="text881"
       transform="rotate(2.0158884)"><tspan
         id="tspan879"
         x="159.59843"
         y="23.480335"
         style="font-size:25.1624px;fill:#55ff99;stroke-width:0.336996">T</tspan></text>
    <text
       xml:space="preserve"
       style="font-size:25.1624px;line-height:1.25;font-family:'Deep Script 2';-inkscape-font-specification:'Deep Script 2, ';fill:#55ff99;stroke-width:0.336996"
       x="174.28183"
       y="24.92461"
       id="text885"
       transform="rotate(2.0158884)"><tspan
         id="tspan883"
         x="174.28183"
         y="24.92461"
         style="font-size:25.1624px;fill:#55ff99;stroke-width:0.336996">e</tspan></text>
    <text
       xml:space="preserve"
       style="font-size:25.1624px;line-height:1.25;font-family:'Deep Script 2';-inkscape-font-specification:'Deep Script 2, ';fill:#55ff99;stroke-width:0.336996"
       x="186.3174"
       y="21.554649"
       id="text889"
       transform="rotate(2.0158884)"><tspan
         id="tspan887"
         x="186.3174"
         y="21.554649"
         style="font-size:25.1624px;fill:#55ff99;stroke-width:0.336996">s</tspan></text>
    <text
       xml:space="preserve"
       style="font-size:25.1624px;line-height:1.25;font-family:'Deep Script 2';-inkscape-font-specification:'Deep Script 2, ';fill:#55ff99;stroke-width:0.336996"
       x="196.90869"
       y="25.406033"
       id="text893"
       transform="rotate(2.0158884)"><tspan
         id="tspan891"
         x="196.90869"
         y="25.406033"
         style="font-size:25.1624px;fill:#55ff99;stroke-width:0.336996">t</tspan></text>
    <text
       xml:space="preserve"
       style="font-size:25.1624px;line-height:1.25;font-family:'Deep Script 2';-inkscape-font-specification:'Deep Script 2, ';fill:#b3b3b3;stroke-width:0.336996"
       x="209.06685"
       y="27.739748"
       id="text897"
       transform="rotate(2.0158884)"><tspan
         id="tspan895"
         x="209.06685"
         y="27.739748"
         style="font-size:25.1624px;fill:#b3b3b3;stroke-width:0.336996">.</tspan></text>
    <text
       xml:space="preserve"
       style="font-size:25.1624px;line-height:1.25;font-family:'Deep Script 2';-inkscape-font-specification:'Deep Script 2, ';fill:#dd55ff;stroke-width:0.336996"
       x="217.12846"
       y="24.683903"
       id="text901"
       transform="rotate(2.0158884)"><tspan
         id="tspan899"
         x="217.12846"
         y="24.683903"
         style="font-size:25.1624px;fill:#dd55ff;stroke-width:0.336996">S</tspan></text>
    <text
       xml:space="preserve"
       style="font-size:25.1624px;line-height:1.25;font-family:'Deep Script 2';-inkscape-font-specification:'Deep Script 2, ';fill:#dd55ff;stroke-width:0.336996"
       x="231.57114"
       y="28.05386"
       id="text905"
       transform="rotate(2.0158884)"><tspan
         id="tspan903"
         x="231.57114"
         y="28.05386"
         style="font-size:25.1624px;fill:#dd55ff;stroke-width:0.336996">i</tspan></text>
    <text
       xml:space="preserve"
       style="font-size:25.1624px;line-height:1.25;font-family:'Deep Script 2';-inkscape-font-specification:'Deep Script 2, ';fill:#dd55ff;stroke-width:0.336996"
       x="239.27391"
       y="29.016705"
       id="text909"
       transform="rotate(2.0158884)"><tspan
         id="tspan907"
         x="239.27391"
         y="29.016705"
         style="font-size:25.1624px;fill:#dd55ff;stroke-width:0.336996">t</tspan></text>
    <text
       xml:space="preserve"
       style="font-size:25.1624px;line-height:1.25;font-family:'Deep Script 2';-inkscape-font-specification:'Deep Script 2, ';fill:#dd55ff;stroke-width:0.336996"
       x="248.90237"
       y="28.05386"
       id="text913"
       transform="rotate(2.0158884)"><tspan
         id="tspan911"
         x="248.90237"
         y="28.05386"
         style="font-size:25.1624px;fill:#dd55ff;stroke-width:0.336996">e</tspan></text>
  </g>
</svg>
